<?xml version="1.0" standalone="no"?>
<!DOCTYPE svg PUBLIC "-//W3C//DTD SVG 1.1//EN" "http://www.w3.org/Graphics/SVG/1.1/DTD/svg11.dtd" >
<svg xmlns="http://www.w3.org/2000/svg">
<metadata>Generated by IcoMoon</metadata>
<defs>
<font id="icomoon" horiz-adv-x="1024">
<font-face units-per-em="1024" ascent="960" descent="-64" />
<missing-glyph horiz-adv-x="1024" />
<glyph unicode="&#x20;" horiz-adv-x="512" d="" />
<glyph unicode="&#xe900;" glyph-name="allstcok_user" d="M846.507 215.893l-197.973 122.88c68.267 75.093 68.267 177.493 68.267 180.907v122.88c0 0 0 3.413 0 3.413-17.067 88.747-116.053 146.773-201.387 146.773 0 0 0 0 0 0-85.333 0-187.733-58.027-201.387-146.773 0 0 0-3.413 0-3.413v-122.88c0-3.413 0-105.813 68.267-180.907l-197.973-119.467c-10.24-6.827-13.653-13.653-13.653-23.893v-40.96c0-27.307 23.893-51.2 51.2-51.2h597.333c27.307 0 51.2 23.893 51.2 51.2v40.96c-10.24 6.827-17.067 17.067-23.893 20.48zM802.133 157.867h-580.267v17.067l218.453 129.707c3.413 0 3.413 3.413 6.827 6.827 0 0 0 0 3.413 0 0 0 0 0 0 0 0 3.413 3.413 3.413 3.413 6.827 0 0 0 3.413 3.413 3.413 0 3.413 0 3.413 0 6.827s0 3.413 0 6.827c0 0 0 3.413 0 3.413 0 3.413 0 3.413-3.413 6.827 0 0 0 0 0 0s-3.413 3.413-3.413 3.413c0 0-3.413 3.413-3.413 3.413-75.093 58.027-75.093 163.84-75.093 163.84v122.88c10.24 51.2 78.507 98.987 143.36 98.987s133.12-47.787 143.36-98.987v-122.88c0 0 0-105.813-75.093-163.84 0 0-3.413-3.413-3.413-3.413s-3.413-3.413-3.413-3.413c0 0 0 0 0 0 0-3.413-3.413-3.413-3.413-6.827 0 0 0-3.413 0-3.413 0-3.413 0-3.413 0-6.827s0-3.413 0-6.827c0 0 0-3.413 3.413-3.413 0-3.413 3.413-3.413 3.413-6.827 0 0 0 0 0 0s3.413-3.413 3.413-3.413c0 0 3.413-3.413 3.413-3.413v0c0 0 0 0 0 0l218.453-129.707v-17.067z" />
<glyph unicode="&#xe901;" glyph-name="allstcok_lock" d="M716.8 564.053h-30.72v58.027c0 95.573-78.507 174.080-174.080 174.080s-174.080-78.507-174.080-174.080v-58.027h-30.72c-47.787 0-88.747-37.547-88.747-88.747v-290.133c0-47.787 37.547-88.747 88.747-88.747h409.6c47.787 0 88.747 37.547 88.747 88.747v290.133c-3.413 51.2-40.96 88.747-88.747 88.747zM395.947 622.080c0 64.853 51.2 116.053 116.053 116.053s116.053-51.2 116.053-116.053v-58.027h-232.107v58.027zM744.107 185.173c0-17.067-13.653-30.72-30.72-30.72h-406.187c-17.067 0-30.72 13.653-30.72 30.72v290.133c0 17.067 13.653 30.72 30.72 30.72h409.6c17.067 0 30.72-13.653 30.72-30.72v-290.133zM512 448c-30.72 0-58.027-27.307-58.027-58.027 0-20.48 10.24-40.96 30.72-51.2v-64.853c0-17.067 13.653-30.72 30.72-30.72s30.72 13.653 30.72 30.72v64.853c17.067 10.24 30.72 27.307 30.72 51.2-6.827 30.72-34.133 58.027-64.853 58.027z" />
<glyph unicode="&#xe902;" glyph-name="allstcok_x" d="M538.548 448l379.259 379.259c7.585 7.585 7.585 18.963 0 26.548s-18.963 7.585-26.548 0l-379.259-379.259-379.259 379.259c-7.585 7.585-18.963 7.585-26.548 0s-7.585-18.963 0-26.548l379.259-379.259-379.259-379.259c-7.585-7.585-7.585-18.963 0-26.548 3.793-3.793 7.585-3.793 15.17-3.793s11.378 0 15.17 3.793l379.259 379.259 379.259-379.259c3.793-3.793 7.585-3.793 15.17-3.793s11.378 0 15.17 3.793c7.585 7.585 7.585 18.963 0 26.548l-386.844 379.259z" />
<glyph unicode="&#xe903;" glyph-name="allstcok_big_user" d="M903.791-1.67h-783.583c-31.165 0-57.878 26.713-57.878 57.878v57.878c0 8.904 4.452 17.809 13.357 26.713l276.035 151.374c-93.496 97.948-93.496 240.417-93.496 244.87v169.183c0 0 0 4.452 0 4.452 17.809 115.757 146.922 191.443 253.774 191.443 0 0 0 0 0 0 106.852 0 231.513-75.687 253.774-191.443 0 0 0-4.452 0-4.452v-169.183c0-4.452 0-146.922-93.496-244.87l276.035-151.374c8.904-4.452 13.357-13.357 13.357-26.713v-57.878c0-31.165-26.713-57.878-57.878-57.878zM903.791 56.209v0zM120.209 96.278v-40.070h783.583v40.070l-293.843 160.278c-8.904 4.452-13.357 13.357-13.357 22.261s4.452 17.809 8.904 22.261c102.4 80.139 102.4 231.513 102.4 231.513v164.73c-17.809 84.591-115.757 142.47-195.896 142.47s-182.539-57.878-195.896-142.47v-164.73c0 0 0-151.374 102.4-231.513 8.904-4.452 8.904-13.357 8.904-22.261s-4.452-17.809-13.357-22.261l-293.843-160.278z" />
<glyph unicode="&#xe904;" glyph-name="allstcok_upload" d="M289.391 167.513h-31.165c-106.852 0-195.896 89.043-195.896 195.896 0 75.687 44.522 146.922 111.304 178.087 0 4.452 0 13.357 0 17.809 0 155.826 124.661 280.487 280.487 280.487 111.304 0 213.704-66.783 258.226-169.183 138.017-4.452 249.322-115.757 249.322-253.774 0-129.113-93.496-235.965-222.609-249.322-13.357 0-31.165 8.904-31.165 22.261s8.904 31.165 22.261 31.165c97.948 13.357 173.635 97.948 173.635 195.896 0 106.852-89.043 195.896-195.896 195.896-4.452 0-8.904 0-8.904 0-13.357 0-26.713 4.452-31.165 17.809-31.165 89.043-115.757 151.374-213.704 151.374-124.661 0-222.609-102.4-222.609-222.609 0-8.904 0-22.261 4.452-31.165 4.452-13.357-4.452-26.713-17.809-31.165-57.878-17.809-97.948-71.235-97.948-133.565 0-75.687 62.33-142.47 142.47-142.47h26.713c13.357 0 26.713-13.357 26.713-26.713s-13.357-26.713-26.713-26.713zM512 448c-13.357 0-26.713-13.357-26.713-26.713v-338.365c0-13.357 13.357-26.713 26.713-26.713s26.713 13.357 26.713 26.713v338.365c0 13.357-13.357 26.713-26.713 26.713zM512 448c-8.904 0-13.357-4.452-17.809-8.904l-111.304-111.304c-8.904-8.904-8.904-26.713 0-40.070 8.904-8.904 26.713-8.904 40.070 0l93.496 93.496 93.496-93.496c8.904-8.904 26.713-8.904 40.070 0 8.904 8.904 8.904 26.713 0 40.070l-111.304 111.304c-13.357 4.452-17.809 8.904-26.713 8.904z" />
<glyph unicode="&#xe905;" glyph-name="allstcok_menu" d="M921.6 791.040h-819.2c-20.48 0-40.96-20.48-40.96-40.96s20.48-40.96 40.96-40.96h819.2c10.24 0 20.48 5.12 30.72 10.24 5.12 5.12 10.24 15.36 10.24 30.72 0 20.48-20.48 40.96-40.96 40.96zM921.6 591.36h-819.2c-20.48 0-40.96-20.48-40.96-40.96s20.48-40.96 40.96-40.96h819.2c10.24 0 20.48 5.12 30.72 10.24 5.12 5.12 10.24 15.36 10.24 30.72 0 20.48-20.48 40.96-40.96 40.96zM921.6 386.56h-819.2c-20.48 0-40.96-20.48-40.96-40.96s20.48-40.96 40.96-40.96h819.2c10.24 0 20.48 5.12 30.72 10.24 5.12 5.12 10.24 15.36 10.24 30.72 0 25.6-20.48 40.96-40.96 40.96zM921.6 186.88h-819.2c-20.48 0-40.96-20.48-40.96-40.96s20.48-40.96 40.96-40.96h819.2c10.24 0 20.48 5.12 30.72 10.24 5.12 5.12 10.24 15.36 10.24 30.72 0 20.48-20.48 40.96-40.96 40.96z" />
<glyph unicode="&#xe906;" glyph-name="multiple25" d="M617.94 730.971c47.347-29.686 80.548-79.921 86.592-138.233 19.309-9.022 40.74-14.211 63.462-14.211 82.95 0 150.182 67.232 150.182 150.169 0 82.95-67.232 150.182-150.182 150.182-82.158-0.026-148.801-66.056-150.054-147.907zM519.553 423.477c82.95 0 150.182 67.244 150.182 150.182s-67.244 150.169-150.182 150.169c-82.937 0-150.207-67.244-150.207-150.182s67.27-150.169 150.207-150.169zM583.257 413.24h-127.435c-106.029 0-192.289-86.273-192.289-192.302v-155.843l0.396-2.441 10.735-3.361c101.186-31.616 189.094-42.159 261.45-42.159 141.326 0 223.24 40.293 228.288 42.862l10.032 5.073h1.073v155.868c0.038 106.029-86.221 192.302-192.251 192.302zM831.724 568.278h-126.451c-1.367-50.593-22.964-96.151-57.123-128.917 94.247-28.025 163.204-115.422 163.204-218.653v-48.024c124.853 4.575 196.8 39.961 201.541 42.338l10.032 5.086h1.073v155.894c0 106.017-86.26 192.276-192.276 192.276zM256.032 578.502c29.379 0 56.714 8.575 79.87 23.182 7.361 48.012 33.098 89.966 69.864 118.54 0.153 2.811 0.422 5.597 0.422 8.434 0 82.95-67.244 150.182-150.156 150.182-82.963 0-150.182-67.232-150.182-150.182 0-82.912 67.219-150.156 150.182-150.156zM390.904 439.361c-33.993 32.6-55.513 77.915-57.085 128.201-4.69 0.345-9.329 0.716-14.108 0.716h-127.422c-106.029 0-192.289-86.26-192.289-192.276v-155.868l0.396-2.402 10.735-3.386c81.174-25.341 153.619-37.021 216.544-40.702v47.066c0.026 103.231 68.957 190.602 163.229 218.653z" />
<glyph unicode="&#xe907;" glyph-name="symbol20" d="M679.657 703.714h78.521l-53.834-303.944c-5.994-35.137-6.186-60.587-0.571-76.295 5.615-15.661 18.148-23.528 37.577-23.528s38.5 4.478 57.197 13.456c18.693 8.978 35.495 22.792 50.467 41.489s27.105 42.221 36.466 70.632c9.335 28.407 14.027 62.055 14.027 100.96 0 56.082-9.383 103.944-28.054 143.56-18.693 39.616-44.307 72.362-76.814 98.142-32.532 25.828-70.867 44.686-114.987 56.653s-91.577 17.983-142.449 17.983c-58.313 0-112.522-10.472-162.61-31.417-50.088-20.971-93.637-49.757-130.67-86.362-37.011-36.653-65.988-80.203-86.907-130.696-20.945-50.445-31.395-105.199-31.395-164.291 0-58.334 8.765-110.649 26.325-157.021 17.582-46.394 43.192-85.796 76.84-118.35 33.643-32.506 75.324-57.555 125.033-75.11s106.741-26.347 171.070-26.347c21.655 0 46.32 2.605 73.995 7.819 27.675 5.258 52.719 13.104 75.158 23.576l34.758-107.691c-30.659-14.951-61.863-25.401-93.637-31.369-31.796-5.994-68.241-9.004-109.346-9.004-72.527 0-139.652 10.499-201.328 31.395-61.697 20.971-115.127 51.983-160.362 93.093-45.257 41.132-80.582 92.169-106.031 153.109-25.397 60.913-38.095 131.402-38.095 211.395 0 81.505 14.572 155.169 43.763 220.97 29.143 65.749 68.406 121.857 117.758 168.251 49.356 46.346 106.549 82.028 171.592 107.12 65.039 25.022 133.824 37.555 206.351 37.555 68.785 0 132.735-9.928 191.801-29.714 59.045-19.834 110.27-48.215 153.632-85.252 43.362-37.011 77.406-82.263 102.097-135.74 24.665-53.429 37.011-114.203 37.011-182.23 0-47.862-8.386-92.692-25.236-134.604-16.824-41.89-39.995-78.142-69.517-108.801-29.57-30.637-63.95-54.923-103.186-72.884-39.237-17.935-81.318-26.917-126.17-26.917-18.719 0-36.061 2.039-52.175 6.16-16.066 4.121-29.522 11.043-40.352 20.757-10.851 9.736-18.884 22.439-24.121 38.148-5.236 15.687-6.752 35.116-4.478 58.313h-4.478c-11.23-15.709-23.363-31.038-36.44-45.967-13.104-14.977-27.484-28.242-43.192-39.829-15.687-11.609-32.911-20.757-51.582-27.484-18.719-6.704-39.263-10.093-61.697-10.093-17.935 0-35.137 3.934-51.582 11.753-16.467 7.867-30.685 18.906-42.626 33.099-11.988 14.193-21.515 31.395-28.599 51.604-7.131 20.187-10.664 42.626-10.664 67.291 0 46.346 7.462 91.411 22.413 135.148 14.951 43.763 35.351 82.433 61.131 116.076s55.703 60.726 89.73 81.318c34.027 20.544 70.109 30.825 108.209 30.825 26.159 0 48.241-3.908 66.176-11.753 17.961-7.867 34.379-18.148 49.356-30.873l34.732 35.917zM608.981 567.973c-9.714 8.246-19.808 14.593-30.258 19.072-10.472 4.5-23.55 6.73-39.263 6.73-22.413 0-43.17-6.351-62.22-19.072-19.072-12.698-35.543-29.121-49.356-49.33-13.862-20.187-24.5-42.839-31.988-67.835-7.462-25.092-11.23-49.57-11.23-73.477 0-24.687 5.049-44.9 15.164-60.608 10.093-15.661 27.462-23.528 52.127-23.528 10.472 0 21.703 3.176 33.643 9.501 11.988 6.373 23.55 14.785 34.806 25.257 11.209 10.451 22.034 22.439 32.506 35.874 10.472 13.483 19.808 27.675 28.054 42.626l28.015 154.79z" />
<glyph unicode="&#xe908;" glyph-name="title" d="M327.861-64c-0.587 0-1.169 0.035-1.751 0.106-0.012-0.006-0.023 0.006-0.041 0.006-0.018 0.006-0.029 0.012-0.041 0.006-0.018 0-0.035 0-0.035 0.006-0.018 0-0.029 0.006-0.041 0.006-0.611 0.076-1.21 0.194-1.804 0.352-0.006 0-0.006 0.006-0.029 0.006-2.485 0.652-4.8 1.956-6.691 3.854-0.006 0.012-0.012 0.023-0.029 0.035-0.012 0.012-0.023 0.023-0.029 0.035-0.012 0.012-0.023 0.023-0.035 0.035l-201.073 206.448c-0.006 0.012-0.018 0.018-0.029 0.029 0 0 0 0.006-0.006 0.006-0.012 0.018-0.023 0.018-0.029 0.035-1.762 1.833-2.978 4.042-3.607 6.398 0 0.006 0 0.006 0 0.006 0 0.012-0.006 0.023-0.006 0.035 0 0 0 0.018-0.006 0.029-0.182 0.699-0.311 1.41-0.388 2.133 0 0 0 0.006 0 0.006 0 0.012 0 0.023 0 0.041 0 0.006 0 0.012 0 0.023s0 0.023 0 0.035c0 0.006 0 0.006 0 0.006-0.053 0.523-0.076 1.046-0.076 1.574v788.061c0 8.113 6.574 14.687 14.687 14.687h770.437c8.113 0 14.687-6.574 14.687-14.687v-994.627c0-8.113-6.574-14.687-14.687-14.687h-569.269c-0.035 0-0.070 0-0.106 0zM342.542-34.627h539.984v965.253h-741.057v-758.799h186.392c8.113 0 14.687-6.574 14.687-14.687v-191.768zM161.589 142.454l151.585-155.632v155.632h-151.585zM799.434 233.653h-572.113c-8.113 0-14.687 6.574-14.687 14.687s6.574 14.687 14.687 14.687h572.113c8.113 0 14.687-6.574 14.687-14.687s-6.574-14.687-14.687-14.687zM799.434 309.043h-572.113c-8.113 0-14.687 6.574-14.687 14.687s6.574 14.687 14.687 14.687h572.113c8.113 0 14.687-6.574 14.687-14.687s-6.574-14.687-14.687-14.687zM686.587 414.024c-3.466 0-6.85 1.228-9.523 3.507-3.184 2.714-5.064 6.662-5.158 10.845l-0.552 24.315-100.945 15.75c-4.089 0.634-7.719 2.973-9.999 6.427-2.279 3.46-2.99 7.713-1.962 11.726l38.556 150.604c-23.569 22.529-39.296 53.436-42.127 88.414-6.133 75.754 50.505 142.361 126.259 148.5 75.707 6.157 142.361-50.511 148.495-126.253v0c3.437-42.433-12.824-81.999-41.105-109.675l39.942-188.877c0.846-3.995-0.006-8.154-2.356-11.485-2.344-3.337-5.975-5.546-10.010-6.104l-127.504-17.542c-0.676-0.106-1.345-0.153-2.009-0.153zM697.385 598.988l3.507-153.482 95.564 13.148-33.756 159.627c-17.53-10.463-37.651-17.178-59.34-18.94-1.992-0.159-3.989-0.27-5.975-0.352zM590.906 494.965l77.658-12.119 1.909 8.225-2.514 109.962c-16.291 2.92-31.682 8.73-45.564 16.925l-31.488-122.993zM692.321 845.185c-2.926 0-5.869-0.123-8.824-0.364-59.605-4.823-104.176-57.243-99.353-116.848s57.313-104.235 116.854-99.353c59.605 4.823 104.176 57.249 99.353 116.854v0c-4.594 56.644-52.161 99.711-108.030 99.711zM463.313 612.136h-235.992c-8.113 0-14.687 6.574-14.687 14.687s6.574 14.687 14.687 14.687h235.998c8.113 0 14.687-6.574 14.687-14.687s-6.58-14.687-14.693-14.687zM463.313 701.038h-235.992c-8.113 0-14.687 6.574-14.687 14.687s6.574 14.687 14.687 14.687h235.998c8.113 0 14.687-6.574 14.687-14.687s-6.58-14.687-14.693-14.687zM463.313 795.338h-235.992c-8.113 0-14.687 6.574-14.687 14.687s6.574 14.687 14.687 14.687h235.998c8.113 0 14.687-6.574 14.687-14.687s-6.58-14.687-14.693-14.687z" />
<glyph unicode="&#xe909;" glyph-name="situation" d="M512.006 198.137c28.346 0 264.918 293.851 264.918 440.166 0 146.31-118.61 264.92-264.918 264.92-146.318 0-264.923-118.61-264.923-264.92 0-146.313 237.602-440.166 264.923-440.166zM340.885 647.581c0 94.505 76.608 171.116 171.121 171.116 94.503 0 171.116-76.611 171.116-171.116s-76.613-171.118-171.116-171.118c-94.513 0-171.121 76.613-171.121 171.118zM982.505 400.61c0 24.401-19.847 44.251-44.248 44.251 0 0-118.115 0-161.343 0-3.366 0-7.243 0.178-11.506-6.974-8.514-14.29-7.768-13.033-15.759-26.26-3.718-6.152 1.909-8.238 4.226-8.238 51.662 0 184.388 0 184.388 0 1.477 0 2.774-1.301 2.774-2.774l41.502-363.588c0-1.477-1.296-2.776-2.776-2.776h-935.506c-1.487 0-2.776 1.301-2.776 2.776l41.495 363.583c0 1.477 1.296 2.774 2.776 2.774 0 0 137.216 0 182.956 0 3.768 0 9.735 2.191 2.949 13.237-7.961 12.956-4.876 9.16-13.312 23.499-3.14 5.339-7.494 4.743-13.385 4.743-39.804 0-159.208 0-159.208 0-24.391 0-44.248-19.849-44.248-44.251l-41.502-363.591c0-24.401 19.852-44.248 44.253-44.248h935.499c24.406 0 44.248 19.847 44.248 44.248l-41.495 363.588z" />
<glyph unicode="&#xe90a;" glyph-name="child2" d="M787.988 446.916c-10.128-30.792-22.734-71.921-35.341-113.071-12.193-39.89-24.387-80.005-34.928-111.601v-85.584c0-110.571-89.902-200.661-200.677-200.661-110.571 0-200.677 90.090-200.677 200.661v88.888c0 1.261 0 2.253 0.413 3.304-10.541 31.21-25.422 70.081-39.89 107.658-14.881 38.876-30.379 78.948-41.129 111.601-17.772 44.251 8.476 89.097 68.82 115.737 10.332 4.753 22.321 0 26.865-10.332 4.549-10.332 0-22.321-10.332-26.849-23.147-10.332-59.936-32.262-47.121-64.502 10.954-33.066 26.248-72.747 40.92-110.963 15.085-38.876 30.379-78.948 41.129-111.601 1.035-3.514 1.239-7.027 0.622-10.332 0.209-1.261 0.413-2.457 0.413-3.718v-88.888c0-88.041 71.717-159.736 159.966-159.736s159.966 71.695 159.966 159.736v88.888c0 1.448 0.209 2.913 0.413 4.114 0.209 1.448 0.622 2.709 1.239 3.948 10.332 31.806 22.734 71.899 34.928 112.223 12.816 41.333 25.422 82.671 36.167 115.115 11.367 28.501-13.432 48.569-35.963 60.553-9.919 5.166-13.846 17.568-8.476 27.487 5.166 9.919 17.568 13.642 27.487 8.476 51.466-27.289 71.926-68.418 55.184-110.555zM719.023 753.036c0 114.106-92.842 206.964-206.964 206.964s-206.964-92.836-206.964-206.964 92.836-206.964 206.964-206.964 206.964 92.863 206.964 206.964zM678.264 753.036c0-91.64-74.549-166.184-166.205-166.184s-166.205 74.549-166.205 166.184 74.544 166.189 166.205 166.189 166.205-74.549 166.205-166.189z" />
<glyph unicode="&#xe90b;" glyph-name="real-estate44" d="M942.865 538.44l-0.499-0.796c0.199-0.101 0.499-0.101 0.698-0.101h0.3l-0.499 0.897zM1018.326 434.416l-55.352 90.096c8.463 6.173 13.938 16.127 13.938 27.377 0 18.615-15.233 33.848-33.848 33.848-18.716 0-33.948-15.233-33.948-33.848 0-11.15 5.375-21.005 13.739-27.178l-27.078-44.101-15.132 24.589c-3.584 5.775-13.142 5.775-16.726 0l-12.344-20.209-50.375 81.931c8.264 7.067 13.54 17.62 13.54 29.367 0 21.403-17.421 38.925-38.925 38.925-21.403 0-38.824-17.522-38.824-38.925 0-11.747 5.176-22.199 13.439-29.367l-52.763-86.013v172.326c0 5.375-4.38 9.855-9.757 9.855h-402.294c-5.475 0-9.855-4.481-9.855-9.855v-47.786c-6.669 11.848-19.414 19.91-33.948 19.91-21.403 0-38.925-17.522-38.925-38.925 0-11.747 5.277-22.199 13.54-29.367l-43.804-71.38-11.946 19.512c-1.791 2.886-4.977 4.68-8.362 4.68s-6.571-1.791-8.362-4.68l-18.517-30.065-24.292 39.721c8.362 6.173 13.739 16.029 13.739 27.178 0 18.615-15.233 33.848-33.948 33.848s-33.948-15.233-33.948-33.848c0-11.251 5.475-21.204 13.938-27.377l-55.15-89.993c-3.385-1.494-5.775-4.979-5.775-8.961v-151.321c0-5.475 4.38-9.855 9.757-9.855 5.475 0 9.855 4.38 9.855 9.855v139.861h320.361v-130.114h-39.522v42.907c0 7.266-1.791 14.137-4.879 20.209 0 0.199-0.101 0.3-0.199 0.398-2.39 4.68-5.674 8.959-9.558 12.445 0 0.101-0.101 0.101-0.199 0.101-2.886 2.788-6.271 5.078-9.855 6.868-6.072 3.186-13.041 4.977-20.308 4.977-24.788 0-44.998-20.209-44.998-44.998v-42.907h-165.357c-5.375 0-9.757-4.38-9.757-9.757 0-5.475 4.38-9.855 9.757-9.855h165.357v-11.848c0-5.375 4.481-9.757 9.855-9.757 5.475 0 9.855 4.38 9.855 9.757v74.365c0 13.938 11.349 25.287 25.287 25.287 8.362 0 15.729-4.083 20.308-10.253 3.186-4.181 4.977-9.457 4.977-15.034v-74.365c0-5.375 4.481-9.757 9.855-9.757 5.475 0 9.855 4.38 9.855 9.757v11.848h49.378c5.375 0 9.855 4.38 9.855 9.855v151.321c0 5.475-4.481 9.855-9.855 9.855h-1.693c0.499 1.194 0.796 2.488 0.796 3.783v41.613c0 6.77 5.475 12.344 12.344 12.344 6.77 0 12.246-5.576 12.246-12.344v-41.613c0-5.475 4.38-9.855 9.855-9.855 5.375 0 9.855 4.38 9.855 9.855v41.613c0 17.62-14.336 31.956-31.956 31.956-17.721 0-32.057-14.336-32.057-31.956v-14.832l-33.843 55.052v105.626h382.682v-167.846l-9.359-15.233c-2.687-1.791-4.38-4.778-4.38-8.163v-151.321c0-5.475 4.38-9.855 9.855-9.855h49.378v-11.848c0-5.375 4.38-9.757 9.855-9.757 5.375 0 9.757 4.38 9.757 9.757v74.365c0 13.938 11.349 25.287 25.385 25.287 13.938 0 25.287-11.349 25.287-25.287v-74.365c0-5.375 4.38-9.757 9.855-9.757 5.375 0 9.757 4.38 9.757 9.757v11.848h165.456c5.375 0 9.757 4.38 9.757 9.855 0 5.375-4.38 9.757-9.757 9.757h-165.456v42.907c0 24.788-20.109 44.998-44.899 44.998-24.788 0-44.998-20.209-44.998-44.998v-42.907h-39.623v130.114h320.459v-139.872c0-5.475 4.38-9.855 9.757-9.855 5.475 0 9.855 4.38 9.855 9.855v151.321c0.003 3.982-2.287 7.377-5.672 8.871zM275.761 567.409v-24.292l-8.561 13.938c3.483 2.886 6.271 6.382 8.561 10.354zM241.813 605.636c10.651 0 19.215-8.561 19.215-19.215 0-4.68-1.693-8.959-4.38-12.246-2.090-2.589-4.879-4.579-8.065-5.674-2.090-0.897-4.38-1.295-6.77-1.295s-4.68 0.398-6.77 1.295c-3.186 1.096-5.974 3.085-8.065 5.674-2.687 3.284-4.38 7.566-4.38 12.246 0.003 10.654 8.563 19.215 19.215 19.215zM80.936 556.259c7.964 0 14.336-6.372 14.336-14.235 0-4.083-1.693-7.866-4.481-10.354-2.39-2.39-5.674-3.783-9.258-3.884-0.199-0.101-0.398-0.101-0.597-0.101h-0.398c-3.584 0.101-6.868 1.494-9.258 3.783-2.788 2.687-4.579 6.372-4.579 10.553 0 7.876 6.372 14.238 14.235 14.238zM28.274 423.863l0.995 1.693 50.672 82.628 1.096 1.693 1.096-1.693 31.757-51.866 11.55-18.718 7.468-12.047 0.995-1.693h-105.628zM136.985 456.308l15.331 24.987 8.861-14.336v-0.101l-15.331-24.889-8.861 14.339zM324.94 425.545l0.995-1.693h-0.597l0.796-1.393h-168.244l0.698 1.393h-0.897l0.995 1.693 13.938 22.6 5.775 9.457 5.775 9.359 49.876 81.334c0 0 0 0 0.101 0 2.488-0.499 5.078-0.796 7.667-0.796s5.176 0.3 7.667 0.796c0.101 0 0.101 0 0.101 0l26.184-42.708v-0.995l19.613-31.956v0.995l29.558-48.086zM678.053 630.833h-382.679v12.543h382.682v-12.543zM943.064 566.125c7.866 0 14.235-6.372 14.235-14.235 0-4.181-1.791-7.964-4.68-10.553-2.39-2.289-5.674-3.682-9.258-3.783l-0.499 0.897-0.499-0.796c-3.584 0.101-6.77 1.494-9.158 3.884-2.788 2.488-4.481 6.271-4.481 10.354 0.003 7.85 6.372 14.233 14.339 14.233zM775.815 615.502c10.651 0 19.313-8.561 19.313-19.215 0-4.579-1.693-8.959-4.481-12.246-2.090-2.589-4.879-4.579-8.065-5.674-2.090-0.897-4.38-1.295-6.77-1.295s-4.68 0.398-6.77 1.295c-3.186 1.096-5.974 3.085-8.065 5.674-2.687 3.284-4.38 7.667-4.38 12.246 0.003 10.654 8.563 19.215 19.217 19.215zM691.693 433.711l0.995 1.693 4.977 8.065 70.383 114.685c0 0 0 0 0.101 0 2.488-0.499 5.078-0.796 7.667-0.796 2.687 0 5.277 0.3 7.765 0.796l56.447-91.988 5.674-9.359 5.775-9.359 7.465-12.047 0.995-1.693c0 0.003-168.244 0.003-168.244 0.003zM875.069 446.86l-12.047 19.414 9.258 15.034 11.946-19.512-9.158-14.935zM890.1 433.711l0.995 1.693 4.68 7.566 5.775 9.457 5.775 9.359 34.445 56.248 1.096 1.693 1.096-1.693 50.773-82.628 0.995-1.693h-105.628zM119.463 352.175c-1.791 9.656-7.566 17.92-15.729 22.998-5.277 3.385-11.548 5.277-18.217 5.277-19.114 0-34.545-15.53-34.545-34.545v-44.998c0-5.475 4.38-9.855 9.757-9.855h49.478c1.194 0 2.289 0.199 3.284 0.597 2.39 0.796 4.38 2.589 5.475 4.778 0.698 1.295 1.096 2.886 1.096 4.481v44.998c-0.003 2.199-0.202 4.292-0.599 6.271zM100.349 310.663h-29.768v35.24c0 6.969 4.68 12.742 11.15 14.336l0.101 0.101h0.101c1.194 0.3 2.289 0.499 3.584 0.499 4.282 0 8.163-1.891 10.85-4.879 2.488-2.589 3.982-6.173 3.982-10.054 0-0.003 0-35.243 0-35.243zM348.035 425.545l0.101-0.101c0 0.101 0 0.101 0 0.101h-0.101zM938.483 390.305c-19.016 0-34.545-15.53-34.545-34.545v-44.998c0-5.475 4.38-9.855 9.855-9.855h49.378c5.475 0 9.855 4.38 9.855 9.855v44.998c0.003 19.016-15.527 34.545-34.543 34.545zM953.416 320.529h-29.866v35.24c0 8.264 6.77 14.933 14.933 14.933 8.264 0 14.933-6.669 14.933-14.933v-35.24zM348.035 425.545l0.101-0.101c0 0.101 0 0.101 0 0.101h-0.101zM494.279 502.9c-17.62 0-31.956-14.336-31.956-31.956v-41.613c0-5.475 4.38-9.855 9.855-9.855 5.375 0 9.757 4.38 9.757 9.855v41.613c0 6.77 5.576 12.344 12.344 12.344 6.77 0 12.344-5.576 12.344-12.344v-41.613c0-5.475 4.38-9.855 9.855-9.855 5.375 0 9.757 4.38 9.757 9.855v41.613c0 17.631-14.336 31.956-31.956 31.956zM617.427 502.9c-17.62 0-31.956-14.336-31.956-31.956v-41.613c0-5.475 4.38-9.855 9.855-9.855 5.375 0 9.757 4.38 9.757 9.855v41.613c0 6.77 5.574 12.344 12.344 12.344s12.344-5.576 12.344-12.344v-41.613c0-5.475 4.38-9.855 9.855-9.855 5.375 0 9.757 4.38 9.757 9.855v41.613c0 17.631-14.336 31.956-31.956 31.956zM361.276 607.43c-17.721 0-32.057-14.336-32.057-31.956v-41.613c0-5.475 4.481-9.855 9.855-9.855 5.475 0 9.855 4.38 9.855 9.855v41.613c0 6.77 5.475 12.344 12.344 12.344 6.77 0 12.246-5.576 12.246-12.344v-41.613c0-5.475 4.38-9.855 9.855-9.855 5.375 0 9.855 4.38 9.855 9.855v41.613c0.005 17.631-14.331 31.956-31.954 31.956zM494.279 607.43c-17.62 0-31.956-14.336-31.956-31.956v-41.613c0-5.475 4.38-9.855 9.855-9.855 5.375 0 9.757 4.38 9.757 9.855v41.613c0 6.77 5.576 12.344 12.344 12.344 6.77 0 12.344-5.576 12.344-12.344v-41.613c0-5.475 4.38-9.855 9.855-9.855 5.375 0 9.757 4.38 9.757 9.855v41.613c0 17.631-14.336 31.956-31.956 31.956zM617.427 607.43c-17.62 0-31.956-14.336-31.956-31.956v-41.613c0-5.475 4.38-9.855 9.855-9.855 5.375 0 9.757 4.38 9.757 9.855v41.613c0 6.77 5.574 12.344 12.344 12.344s12.344-5.576 12.344-12.344v-41.613c0-5.475 4.38-9.855 9.855-9.855 5.375 0 9.757 4.38 9.757 9.855v41.613c0 17.631-14.336 31.956-31.956 31.956zM494.279 395.48c-24.788 0-44.998-20.109-44.998-44.899v-74.365c0-5.375 4.481-9.855 9.855-9.855 5.475 0 9.855 4.481 9.855 9.855v74.365c0 13.938 11.349 25.287 25.287 25.287s25.385-11.349 25.385-25.287v-74.365c0-5.375 4.38-9.855 9.757-9.855 5.475 0 9.855 4.481 9.855 9.855v74.365c0 24.791-20.209 44.899-44.998 44.899zM942.865 538.44l-0.499-0.796c0.199-0.101 0.499-0.101 0.698-0.101h0.3l-0.499 0.897zM942.865 538.44l-0.499-0.796c0.199-0.101 0.499-0.101 0.698-0.101h0.3l-0.499 0.897zM942.865 538.44l-0.499-0.796c0.199-0.101 0.499-0.101 0.698-0.101h0.3l-0.499 0.897zM348.035 425.545l0.101-0.101c0 0.101 0 0.101 0 0.101h-0.101z" />
<glyph unicode="&#xe90c;" glyph-name="trees73" d="M278.837 457.179v-160.75c0-3.306-1.602-6.214-3.998-7.918l-0.109-0.109c-1.595-1.191-3.598-1.894-5.803-1.894-5.411 0-9.822 4.399-9.822 9.921v144.716l19.733 16.034zM618.086 437.034l28.252-24.353c1.813-1.602 4.11-2.406 6.425-2.406 2.796 0 5.512 1.202 7.515 3.517 3.507 4.1 3.106 10.311-1.012 13.93l-211.36 182.198c-3.598 3.116-9.011 3.207-12.728 0.211l-209.365-170.671c-4.209-3.408-4.799-9.622-1.402-13.831 3.507-4.209 9.721-4.911 13.93-1.402l20.745 16.926 19.744 16.045 162.454 132.389 157.041-135.505v-154.325c-35.177 7.806-72.95 13.22-109.037 15.324v84.684c0 26.858-21.848 48.706-48.696 48.706-26.868 0-48.706-21.858-48.706-48.706v-87.090c-42.382-4.399-82.98-12.918-117.054-24.142l-0.109-0.109c-1.595-1.191-3.598-1.894-5.803-1.894-33.483-11.625-60.029-26.067-74.963-41.69-3.808-3.91-3.608-10.122 0.302-13.93 1.894-1.813 4.399-2.716 6.815-2.716 2.606 0 5.221 1.012 7.216 3.007 33.083 34.675 137.198 63.247 237.217 65.042 64.139 1.012 140.416-10.223 199.244-29.665 5.21-1.803 10.715 1.001 12.528 6.214 1.704 5.21-1.103 10.824-6.324 12.528-10.522 3.507-21.536 6.714-32.971 9.622 0.109 0.502 0.109 1.001 0.109 1.504-0.005-0.005-0.005 140.59-0.005 140.59zM469.554 316.973h-57.925v82.78c0 15.935 13.038 28.962 28.973 28.962s28.962-13.027 28.962-28.962v-82.78h-0.010zM659.267 470.606l-211.36 182.198c-3.598 3.106-9.011 3.207-12.728 0.211l-98.213-79.973v14.531c0 5.512-4.409 9.921-9.921 9.921h-48.404c-5.512 0-9.921-4.409-9.921-9.921v-68.26c0-0.601 0.101-1.202 0.211-1.803l-43.103-35.075c-4.209-3.507-4.799-9.721-1.402-13.93 3.507-4.209 9.721-4.911 13.93-1.412l202.943 165.36 205.047-176.784c1.813-1.602 4.11-2.406 6.425-2.406 2.796 0 5.512 1.103 7.515 3.408 3.491 4.118 3.090 10.33-1.017 13.938zM317.221 556.885l-28.653-23.352v44.195h28.653v-20.844zM710.576 497.766v-4.609c-0.101 0.291-0.101 0.692-0.101 1.001 0.003 1.202 0.003 2.406 0.101 3.608zM1022.767 442.445c-2.716 22.951-27.659 59.73-66.746 70.765-6.815 25.154-30.768 63.84-83.982 63.84-18.841 0-41.391-11.224-42.393-11.726-4.799-2.406-6.815-8.319-4.399-13.23 2.505-4.911 8.418-6.815 13.329-4.409 5.301 2.617 21.747 9.521 33.473 9.521 55.722 0 65.643-51.713 65.945-53.818 0.692-4.11 3.808-7.216 7.817-8.017 34.274-6.914 55.511-39.586 57.324-55.121 5.411-47.603-7.315-65.443-50.509-70.853-31.168-3.91-54.72 7.817-64.641 13.94v49.999c5.221 5.010 12.327 7.518 18.24 8.829 6.214 1.303 11.115 1.402 11.224 1.402 5.512 0.101 9.812 4.511 9.812 9.921 0 5.512-4.399 9.911-9.812 9.911-0.801 0-15.243-0.101-29.465-6.714v28.663c0 5.411-4.511 9.822-9.921 9.822-5.512 0-9.911-4.409-9.911-9.822v-44.097c-4.219 2.716-8.719 4.721-13.038 6.214-11.625 3.918-22.038 4.009-22.839 4.009-5.411 0-9.921-4.409-9.921-9.921 0-5.411 4.399-9.812 9.921-9.812 0.291 0 28.062-0.611 35.177-18.739 0.2-0.502 0.401-0.903 0.702-1.412v-26.148c-6.113-4.11-14.531-9.219-18.451-10.322-30.167-8.217-53.916-3.007-54.208-2.906-5.312 1.202-10.634-2.104-11.927-7.307-1.202-5.312 2.104-10.722 7.416-11.927 1.093-0.302 28.562-6.514 63.939 3.106 3.91 1.103 8.719 3.418 13.23 6.022v-65.242c-22.758 8.308-47.002 12.728-71.566 12.728-22.951 0-45.2-3.608-66.233-10.624v68.738c1.803 0.101 2.895 0.302 3.106 0.302l2.406 0.302c30.867 4.901 82.070 27.16 78.67 120.363-3.207 91.299-28.762 126.775-57.415 158.446-11.836 11.035-28.172 24.051-38.493 23.162-12.528 0-25.055-10.824-27.259-12.827-15.735-13.43-53.818-53.617-65.945-134.392-0.801-5.411 2.906-10.423 8.319-11.224s10.423 2.906 11.224 8.319c11.224 74.162 45.2 110.239 59.53 122.475 3.507 3.197 10.624 7.918 14.232 7.918 3.598-0.611 15.433-9.12 24.252-17.246 26.548-29.363 48.807-60.531 51.812-145.317 2.705-74.061-32.271-95.308-61.835-100.117l-2.104-0.291c0 0-0.211 0-0.502-0.101v32.57c-0.109-0.702-0.401-1.504-0.801-2.115 0.502 1.202 0.801 2.505 0.801 3.819v-1.704c0.2 0.692 0.291 1.493 0.291 2.294 0 7.817 2.305 13.93 6.914 18.539 9.32 9.229 25.154 10.322 28.762 10.322 0.401 0 0.692 0 0.692 0s0 0 0.109 0c5.411 0 9.812 4.31 9.812 9.721 0.101 5.522-4.31 9.921-9.721 10.023-1.012 0.109-21.055 0.211-36.881-10.624v35.075c0.39 13.43 8.418 20.545 16.926 24.353 8.818 3.808 18.040 4.11 19.842 4.209 5.512 0 9.911 4.409 9.812 9.921 0 5.411-4.399 9.822-9.812 9.822-0.109 0-0.109 0-0.109 0-10.122-0.109-24.754-2.906-36.67-11.035v31.478c0 5.411-4.409 9.911-9.822 9.911-5.512 0-9.921-4.5-9.921-9.911v-32.071c-12.226 8.519-27.56 11.516-37.984 11.625-0.101 0-0.101 0-0.101 0-5.411 0-9.812-4.321-9.921-9.731-0.101-5.512 4.318-9.911 9.731-10.023 3.91-0.101 37.984-1.493 37.984-30.065 0-0.801 0.101-1.595 0.291-2.294v-31.369c-6.615 4.511-13.93 7.114-20.243 8.608-8.53 2.104-15.243 2.104-15.935 2.104-5.411 0-9.822-4.399-9.822-9.812 0-5.512 4.409-9.921 9.822-9.921 3.699 0 36.168-1.001 36.168-29.454v-34.475c-2.906 0.101-4.609 0.302-4.711 0.302l-2.206 0.291c-11.035 1.714-20.745 5.712-29.163 11.836-4.409 3.197-10.634 2.206-13.729-2.206-3.306-4.409-2.305-10.634 2.104-13.841 10.923-7.918 23.552-13.027 37.984-15.433l2.505-0.291c0.2 0 3.007-0.401 7.216-0.502v-74.563c0-0.502 0-1.103 0.211-1.602-24.153-10.824-46.401-26.548-65.352-46.401-3.709-3.91-3.598-10.122 0.401-13.93 3.918-3.808 10.122-3.608 13.94 0.291 36.080 37.791 84.575 58.638 136.787 58.638 52.616 0 103.335-22.259 138.902-60.932 2.006-2.104 4.609-3.207 7.307-3.207 2.406 0 4.81 0.903 6.714 2.716 4.009 3.598 4.209 9.911 0.51 13.93-18.050 19.543-39.396 35.276-62.938 46.5 0.601 1.202 0.903 2.617 0.903 4.009v67.849c12.127-5.803 29.964-11.916 52.012-11.916 4.799 0 9.812 0.302 15.033 1.001 54.127 6.644 74.472 34.412 67.768 92.639zM710.576 493.157c-0.101 0.291-0.101 0.692-0.101 1.001 0 1.202 0 2.406 0.101 3.608v-4.609zM730.33 421.7v-1.704c-0.109-0.702-0.401-1.504-0.801-2.115 0.499 1.204 0.801 2.508 0.801 3.819zM250.275 297.43c-0.502-5.411-5.512-9.32-10.824-8.719-6.815 0.702-13.729 1.103-20.646 1.103-52.616 0-103.234-22.259-138.902-60.932-2.006-2.104-4.609-3.207-7.315-3.207-2.396 0-4.799 0.903-6.714 2.716-3.998 3.598-4.209 9.911-0.502 13.93 19.944 21.648 44.097 38.585 70.653 50.009v68.45c-12.015-5.913-29.956-12.026-52.004-12.026-4.81 0-9.822 0.302-15.033 1.001-54.218 6.714-74.472 34.475-67.747 92.701 2.705 22.951 27.659 59.73 66.735 70.765 6.826 25.154 30.768 63.84 83.982 63.84 17.938 0 39.487-6.214 40.387-6.514 1.103-0.2 41.188-9.521 53.516-49.507 1.602-5.21-1.303-10.712-6.503-12.317-5.312-1.602-10.722 1.303-12.426 6.514-8.92 29.152-39.185 36.168-39.487 36.168-0.791 0.211-20.334 5.814-35.476 5.814-55.722 0-65.643-51.713-65.934-53.916-0.801-4.009-3.819-7.114-7.817-7.918-34.274-6.914-55.521-39.586-57.324-55.121-5.411-47.603 7.307-65.443 50.509-70.853 31.467-3.91 54.819 7.726 64.631 13.94v49.999c-10.715 9.921-29.264 10.233-29.454 10.233-5.411 0-9.921 4.511-9.921 9.921 0 5.512 4.511 9.911 9.921 9.911 0.502 0 7.518-0.101 16.336-2.206 4.11-1.001 8.618-2.406 13.129-4.511v28.663c0 5.411 4.511 9.822 9.921 9.822 5.512 0 9.921-4.409 9.921-9.822v-43.995c15.735 9.911 34.675 10.122 35.879 10.122 5.411 0 9.921-4.409 9.921-9.921 0-5.411-4.409-9.812-9.921-9.812-0.401 0-28.060-0.51-35.177-18.742-0.211-0.502-0.401-0.903-0.702-1.412v-26.148c6.103-4.11 14.531-9.331 18.44-10.322 30.266-8.217 54.018-2.906 54.218-2.906s3.408 0.801 8.319 2.716c5.111 1.995 10.824-0.611 12.819-5.621 1.904-5.111-0.601-10.824-5.614-12.827-6.415-2.505-10.722-3.507-11.224-3.507-0.903-0.302-28.362-6.514-63.728 3.106-3.918 1.103-8.719 3.418-13.23 6.022v-62.337c20.144 6.503 41.391 9.812 62.938 9.812 7.616 0 15.233-0.401 22.751-1.202 5.395-0.635 9.302-5.543 8.701-10.957zM274.73 288.401c-1.595-1.191-3.598-1.894-5.803-1.894 1.894 0.7 3.808 1.303 5.803 1.894z" />
<glyph unicode="&#xe90d;" glyph-name="allstcok_download" horiz-adv-x="1113" d="M846.507 174.933c-20.48 0-40.96 20.48-40.96 40.96s20.48 40.96 40.96 40.96c54.613 0 122.88 75.093 122.88 170.667 0 109.227-88.747 191.147-204.8 191.147-6.827 0-6.827 0-13.653 0-20.48 0-34.133 6.827-40.96 27.307-27.307 95.573-116.053 157.013-218.453 157.013-129.707 0-232.107-102.4-232.107-225.28 0-6.827 0-20.48 0-34.133 6.827-20.48-6.827-40.96-27.307-47.787-54.613-13.653-95.573-61.44-95.573-122.88 0-75.093 61.44-116.053 122.88-116.053 20.48 0 40.96-20.48 40.96-40.96s-20.48-40.96-40.96-40.96c-102.4 0-204.8 75.093-204.8 197.973 0 81.92 47.787 157.013 122.88 191.147 0 6.827 0 6.827 0 13.653 0 170.667 143.36 307.2 314.027 307.2 122.88 0 232.107-68.267 286.72-177.493 150.187-6.827 273.067-129.707 273.067-273.067 0-136.533-95.573-259.413-204.8-259.413zM552.96 11.093c-20.48 0-40.96 20.48-40.96 40.96v375.467c0 20.48 20.48 40.96 40.96 40.96s40.96-20.48 40.96-40.96v-375.467c0-20.48-13.653-40.96-40.96-40.96zM552.96 11.093c-13.653 0-20.48 6.827-27.307 13.653l-122.88 122.88c-13.653 13.653-13.653 40.96 0 61.44 13.653 13.653 40.96 13.653 61.44 0l95.573-95.573 88.747 95.573c13.653 13.653 40.96 13.653 61.44 0 13.653-13.653 13.653-40.96 0-61.44l-122.88-122.88c-13.653-6.827-20.48-13.653-34.133-13.653z" />
<glyph unicode="&#xe90e;" glyph-name="allstcok_forward" d="M307.2 903.68l-42.721-42.721 412.959-412.959-412.959-412.959 42.721-42.721 455.68 455.68z" />
<glyph unicode="&#xe90f;" glyph-name="search" d="M640 959.84c-212.064 0-384-171.936-384-384 0-64.832 16.224-125.856 44.64-179.456l-267.008-266.944 0.224-0.192c-20.864-20.512-33.856-48.928-33.856-80.512 0-62.368 50.56-112.928 112.928-112.928 31.52 0 59.968 12.992 80.48 33.888l-0.064 0.064 266.912 266.88c53.632-28.512 114.752-44.8 179.744-44.8 212.064 0 384 171.936 384 384s-171.936 384-384 384zM153.44 9.696c-10.304-10.688-24.576-17.376-40.512-17.376-31.2 0-56.48 25.248-56.48 56.448 0 15.936 6.72 30.176 17.376 40.512l-0.288 0.256 258.112 258.112c22.56-30.432 49.44-57.312 79.808-79.936l-258.016-258.016zM640 255.808c-176.704 0-320 143.328-320 320 0 176.704 143.296 320 320 320 176.672 0 320-143.296 320-320 0-176.672-143.328-320-320-320zM640 799.84c8.8 0 16-7.168 16-16s-7.2-16-16-16c-106.048 0-192-85.984-192-192 0-8.832-7.168-16-16-16s-16 7.168-16 16c0 123.712 100.256 224 224 224z" />
<glyph unicode="&#xe910;" glyph-name="allstcok_backwards" d="M762.88 860.959l-412.959-412.959 412.959-412.959-42.721-42.721-455.68 455.68 455.68 455.68z" />
</font></defs></svg>